ISSS608 - Hands-on Exercise 7: Visualising Geospatial Point Data
…
3.2 Data Import and Preparation

The code chunk below uses read_csv() function of readr package to import SGPools_svy21.csv into R as a tibble data frame called sgpools.

sgpools <- read_csv("data/aspatial/SGPools_svy21.csv")

After importing the data file into R, it is important for us to examine if the data file has been imported correctly.

The code chunk below shows list() is used to do the job.

list(sgpools) 

[[1]]
# A tibble: 306 × 7
   NAME                            ADDRESS POSTC…¹ XCOORD YCOORD OUTLE…² Gp1Gp…³
   <chr>                           <chr>     <dbl>  <dbl>  <dbl> <chr>     <dbl>
 1 Livewire (Marina Bay Sands)     2 Bayf…   18972 30842. 29599. Branch        5
 2 Livewire (Resorts World Sentos… 26 Sen…   98138 26704. 26526. Branch       11
 3 SportsBuzz (Kranji)             Lotus …  738078 20118. 44888. Branch        0
 4 SportsBuzz (PoMo)               1 Sele…  188306 29777. 31382. Branch       44
 5 Prime Serangoon North           Blk 54…  552542 32239. 39519. Branch        0
 6 Singapore Pools Woodlands Cent… 1A Woo…  731001 21012. 46987. Branch        3
 7 Singapore Pools 64 Circuit Rd … Blk 64…  370064 33990. 34356. Branch       17
 8 Singapore Pools 88 Circuit Rd … Blk 88…  370088 33847. 33976. Branch       16
 9 Singapore Pools Anchorvale Rd … Blk 30…  540308 33910. 41275. Branch       21
10 Singapore Pools Ang Mo Kio N2 … Blk 20…  560202 29246. 38943. Branch       25
# … with 296 more rows, and abbreviated variable names ¹​POSTCODE,
#   ²​`OUTLET TYPE`, ³​`Gp1Gp2 Winnings`
…
You can display the basic information of the newly created sgpools_sf by using the code chunk below.

list(sgpools_sf)

[[1]]
Simple feature collection with 306 features and 5 fields
Geometry type: POINT
Dimension:     XY
Bounding box:  xmin: 7844.194 ymin: 26525.7 xmax: 45176.57 ymax: 47987.13
Projected CRS: SVY21 / Singapore TM
# A tibble: 306 × 6
   NAME                ADDRESS POSTC…¹ OUTLE…² Gp1Gp…³            geometry
 * <chr>               <chr>     <dbl> <chr>     <dbl>         <POINT [m]>
 1 Livewire (Marina B… 2 Bayf…   18972 Branch        5 (30841.56 29598.56)
 2 Livewire (Resorts … 26 Sen…   98138 Branch       11  (26703.87 26525.7)
 3 SportsBuzz (Kranji) Lotus …  738078 Branch        0 (20117.93 44888.06)
 4 SportsBuzz (PoMo)   1 Sele…  188306 Branch       44 (29776.95 31382.18)
 5 Prime Serangoon No… Blk 54…  552542 Branch        0 (32238.69 39518.76)
 6 Singapore Pools Wo… 1A Woo…  731001 Branch        3 (21012.15 46987.32)
 7 Singapore Pools 64… Blk 64…  370064 Branch       17 (33990.39 34355.53)
 8 Singapore Pools 88… Blk 88…  370088 Branch       16 (33847.38 33976.04)
 9 Singapore Pools An… Blk 30…  540308 Branch       21 (33909.93 41274.52)
10 Singapore Pools An… Blk 20…  560202 Branch       25  (29246.06 38942.6)
# … with 296 more rows, and abbreviated variable names ¹​POSTCODE,
#   ²​`OUTLET TYPE`, ³​`Gp1Gp2 Winnings`
…
