ISSS608 - Lesson 4: Visual Statistical Analysis
…
Getting Started

Installing and launching R packages

In this exercise, ggstatsplot and tidyverse will be used.

pacman::p_load(ggstatsplot, tidyverse)

Importing data

Do-It-Yourself

Importing Exam.csv data by using appropriate tidyverse package.

# A tibble: 322 × 7
   ID         CLASS GENDER RACE    ENGLISH MATHS SCIENCE
   <chr>      <chr> <chr>  <chr>     <dbl> <dbl>   <dbl>
 1 Student321 3I    Male   Malay        21     9      15
 2 Student305 3I    Female Malay        24    22      16
 3 Student289 3H    Male   Chinese      26    16      16
 4 Student227 3F    Male   Chinese      27    77      31
 5 Student318 3I    Male   Malay        27    11      25
 6 Student306 3I    Female Malay        31    16      16
 7 Student313 3I    Male   Chinese      31    21      25
 8 Student316 3I    Male   Malay        31    18      27
 9 Student312 3I    Male   Malay        33    19      15
10 Student297 3H    Male   Indian       34    49      37
# … with 312 more rows
…
Installing and loading the required libraries

Do-It-Yourself

pacman::p_load(readxl, performance, parameters, see)

Importing Excel file: readxl methods

In the code chunk below, read_xls() of readxl package is used to import the data worksheet of ToyotaCorolla.xls workbook into R.

car_resale <- read_xls("data/ToyotaCorolla.xls", 
                       "data")
car_resale

# A tibble: 1,436 × 38
      Id Model       Price Age_0…¹ Mfg_M…² Mfg_Y…³     KM Quart…⁴ Weight Guara…⁵
   <dbl> <chr>       <dbl>   <dbl>   <dbl>   <dbl>  <dbl>   <dbl>  <dbl>   <dbl>
 1    81 TOYOTA Cor… 18950      25       8    2002  20019     100   1180       3
 2     1 TOYOTA Cor… 13500      23      10    2002  46986     210   1165       3
 3     2 TOYOTA Cor… 13750      23      10    2002  72937     210   1165       3
 4     3  TOYOTA Co… 13950      24       9    2002  41711     210   1165       3
 5     4 TOYOTA Cor… 14950      26       7    2002  48000     210   1165       3
 6     5 TOYOTA Cor… 13750      30       3    2002  38500     210   1170       3
 7     6 TOYOTA Cor… 12950      32       1    2002  61000     210   1170       3
 8     7  TOYOTA Co… 16900      27       6    2002  94612     210   1245       3
 9     8 TOYOTA Cor… 18600      30       3    2002  75889     210   1245       3
10    44 TOYOTA Cor… 16950      27       6    2002 110404     234   1255       3
# … with 1,426 more rows, 28 more variables: HP_Bin <chr>, CC_bin <chr>,
#   Doors <dbl>, Gears <dbl>, Cylinders <dbl>, Fuel_Type <chr>, Color <chr>,
#   Met_Color <dbl>, Automatic <dbl>, Mfr_Guarantee <dbl>,
#   BOVAG_Guarantee <dbl>, ABS <dbl>, Airbag_1 <dbl>, Airbag_2 <dbl>,
#   Airco <dbl>, Automatic_airco <dbl>, Boardcomputer <dbl>, CD_Player <dbl>,
#   Central_Lock <dbl>, Powered_Windows <dbl>, Power_Steering <dbl>,
#   Radio <dbl>, Mistlamps <dbl>, Sport_Model <dbl>, Backseat_Divider <dbl>, …
…
